




                                    .                            __
        ___.  ,   .   ___    ____ _/_   `   __.  , __     ____ /  `.
      .'   `  |   | .'   `  (      |    | .'   \ |'  `.  (     `   '
      |    |  |   | |----'  `--.   |    | |    | |    |  `--.     /
       `---|. `._/| `.___, \___.'  \__/ /  `._.' /    | \___.'   ,
           |/                                                    '